<?xml version="1.0" encoding="utf-8"?>
<!-- Generator: Adobe Illustrator 16.0.0, SVG Export Plug-In . SVG Version: 6.00 Build 0)  -->
<!DOCTYPE svg PUBLIC "-//W3C//DTD SVG 1.1//EN" "http://www.w3.org/Graphics/SVG/1.1/DTD/svg11.dtd">
<svg version="1.1" id="Слой_1" xmlns="http://www.w3.org/2000/svg" xmlns:xlink="http://www.w3.org/1999/xlink" x="0px" y="0px"
	 width="56px" height="52px" viewBox="0 0 56 52" enable-background="new 0 0 56 52" xml:space="preserve">
<g>
	<path fill="#59B9DF" d="M55.844,20.494l0.014-0.009l-12-20l-0.014,0.009C43.668,0.204,43.364,0,43,0H13
		c-0.363,0-0.668,0.204-0.842,0.494l-0.016-0.009l-12,20l0.016,0.009C0.066,20.645,0,20.813,0,21v10c0,0.553,0.447,1,1,1h1v19
		c0,0.553,0.447,1,1,1h50c0.553,0,1-0.447,1-1V32h1c0.553,0,1-0.447,1-1V21C56,20.813,55.934,20.645,55.844,20.494 M13.566,2h28.868
		l10.801,18H2.768L13.566,2z M52,50H4V32h48V50z M54,30H2v-8h52V30z"/>
	<g>
		<path fill="#A6A6A6" d="M15,12h26c0.553,0,1-0.447,1-1s-0.447-1-1-1H15c-0.553,0-1,0.447-1,1S14.447,12,15,12"/>
		<path fill="#A6A6A6" d="M17,8h22c0.553,0,1-0.447,1-1s-0.447-1-1-1H17c-0.553,0-1,0.447-1,1S16.447,8,17,8"/>
		<path fill="#A6A6A6" d="M44,14H12c-0.553,0-1,0.448-1,1c0,0.553,0.447,1,1,1h32c0.553,0,1-0.447,1-1C45,14.448,44.553,14,44,14"/>
	</g>
</g>
</svg>
