<?xml version="1.0" encoding="utf-8"?>
<!-- Generator: Adobe Illustrator 16.0.0, SVG Export Plug-In . SVG Version: 6.00 Build 0)  -->
<!DOCTYPE svg PUBLIC "-//W3C//DTD SVG 1.1//EN" "http://www.w3.org/Graphics/SVG/1.1/DTD/svg11.dtd">
<svg version="1.1" id="Слой_1" xmlns="http://www.w3.org/2000/svg" xmlns:xlink="http://www.w3.org/1999/xlink" x="0px" y="0px"
	 width="56px" height="56.001px" viewBox="0 0 56 56.001" enable-background="new 0 0 56 56.001" xml:space="preserve">
<g>
	<g>
		<path fill="#BCBEBF" d="M54,14H13.707H2c-1.104,0-2,0.896-2,2v8c0,1.104,0.896,2,2,2v28.001c0,1.104,0.896,2,2,2h18h12h18
			c1.104,0,2-0.896,2-2V26c1.104,0,2-0.896,2-2v-8C56,14.896,55.104,14,54,14z M52,54.001H34.583H34H4V26h30h0.582H52V54.001z
			 M54,24H34.583H34H2v-8h32h0.582H54V24z"/>
	</g>
	<g>
		<path fill="#BCBEBF" d="M48.012,5.787C48.012,2.381,45.586,0,42.114,0c-5.037,0-7.908,4.83-10.217,8.713
			c-1.287,2.166-2.59,4.213-3.897,4.967c-1.305-0.754-2.609-2.801-3.896-4.967C21.795,4.83,18.922,0,13.887,0
			c-3.473,0-5.898,2.381-5.898,5.787c0,2.529,1.344,5.049,3.684,6.91c0.539,0.428,1.223,0.877,2.035,1.303
			c1.359,0.67,3.715,2,6.357,2c2.641,0,13.92,0,15.706,0s4.568-0.97,6.523-2c0.813-0.426,1.496-0.875,2.033-1.303
			C46.668,10.836,48.012,8.316,48.012,5.787z M22.887,14c-5.258,0-8.322-1.561-9.971-2.869c-1.859-1.48-2.928-3.426-2.928-5.344
			C9.988,3.486,11.52,2,13.887,2c3.898,0,6.236,3.932,8.496,7.732c0.939,1.58,1.883,3.111,2.924,4.268H22.887z M43.083,11.131
			C41.438,12.439,38.37,14,33.114,14h-2.42c1.041-1.156,1.984-2.688,2.922-4.268C35.877,5.932,38.215,2,42.114,2
			c2.367,0,3.898,1.486,3.898,3.787C46.012,7.705,44.944,9.65,43.083,11.131z"/>
	</g>
	<rect x="22" y="14" fill="#BCBEBF" width="1.955" height="42.001"/>
	<rect x="32" y="14" fill="#BCBEBF" width="1.955" height="42.001"/>
</g>
</svg>
