<?xml version="1.0" encoding="utf-8"?>
<!-- Generator: Adobe Illustrator 16.0.0, SVG Export Plug-In . SVG Version: 6.00 Build 0)  -->
<!DOCTYPE svg PUBLIC "-//W3C//DTD SVG 1.1//EN" "http://www.w3.org/Graphics/SVG/1.1/DTD/svg11.dtd">
<svg version="1.1" id="Слой_1" xmlns="http://www.w3.org/2000/svg" xmlns:xlink="http://www.w3.org/1999/xlink" x="0px" y="0px"
	 width="51.083px" height="49.703px" viewBox="0 0 51.083 49.703" enable-background="new 0 0 51.083 49.703" xml:space="preserve">
<g>
	<g>
		<path fill="#59B9DF" d="M36.817,49.703c-5.891,0-13.165-4.535-22.889-14.271l-0.082-0.084C3.524,23.909-0.586,16.755,0.066,11.388
			C0.527,7.55,3.41,5.261,6.076,3.417c1.727-1.251,3.24-1.701,4.807-1.419c2.398,0.439,4.407,2.393,7.683,7.466
			c3.825,5.928,3.091,8.215,0.267,10.584c-0.199,0.163-0.393,0.322-0.583,0.498l-0.111,0.095c-0.171,0.124-0.362,0.312-0.483,0.462
			c1.684,1.707,5.189,5.499,5.343,5.665l0.343,0.344c1.092,1.047,4.108,3.943,5.463,5.223c0.217-0.071,0.639-0.355,0.867-0.6
			l0.1-0.098c0.182-0.16,0.311-0.275,0.434-0.386l0.121-0.11c1.133-1.021,2.299-1.941,4.07-1.941c1.65,0,3.623,0.813,6.395,2.639
			c4.1,2.701,6.482,5.557,6.889,8.257c0.236,1.55-0.168,3.001-1.17,4.196c-1.744,2.188-4.604,5.153-9.084,5.397
			C37.2,49.697,37.01,49.703,36.817,49.703z M10.004,4.168c-0.771,0-1.607,0.345-2.628,1.084C4.892,6.972,2.65,8.744,2.299,11.658
			C1.75,16.189,5.938,23.226,15.48,33.803l0.043,0.042c9.271,9.283,16.04,13.607,21.293,13.607c0.164,0,0.328-0.006,0.494-0.012
			c3.529-0.192,5.838-2.546,7.455-4.574c0.602-0.717,0.826-1.529,0.688-2.436c-0.305-2.023-2.4-4.408-5.902-6.715
			c-2.316-1.526-4.004-2.268-5.156-2.268c-0.9,0-1.52,0.421-2.566,1.365l-0.121,0.11c-0.135,0.121-0.275,0.247-0.422,0.372
			c-0.1,0.111-1.225,1.268-2.498,1.302c-0.002,0-0.002,0-0.004,0c-0.59,0-1.068-0.198-1.482-0.588
			c-1.336-1.259-4.414-4.215-5.52-5.277l-1.328-1.269l0.069-0.057c-1.226-1.318-3.505-3.758-4.616-4.87
			c-0.555-0.563-0.631-1.126-0.598-1.501c0.098-1.208,1.402-2.139,1.457-2.178c0.184-0.176,0.408-0.362,0.63-0.543
			c1.638-1.375,2.728-2.288-0.721-7.632c-2.813-4.356-4.549-6.171-6.192-6.472C10.326,4.183,10.165,4.168,10.004,4.168z"/>
	</g>
	<g>
		<g>
			<path fill="#A6A6A6" d="M45.053,6.004C41.182,2.134,36.034,0,30.555,0c-1.938,0-3.862,0.272-5.723,0.81l-0.393,0.118l0.009,0.055
				c-0.076,0.051-0.145,0.104-0.209,0.169c-0.533,0.535-0.533,1.407,0.002,1.94c0.378,0.376,0.762,0.435,0.957,0.435l0.205-0.025
				c1.67-0.503,3.406-0.759,5.152-0.759c4.744,0,9.207,1.848,12.582,5.223c4.631,4.637,6.34,11.422,4.43,17.75
				c-0.016,0.061-0.109,0.598,0.422,1.125c0.258,0.26,0.604,0.404,0.973,0.404s0.711-0.145,0.975-0.404
				c0.059-0.064,0.115-0.133,0.16-0.203l0.063,0.006l0.115-0.393C52.352,19.058,50.362,11.311,45.053,6.004z"/>
		</g>
		<g>
			<path fill="#A6A6A6" d="M30.567,7.3c-1.598,0-3.162,0.28-4.652,0.838l-0.02,0.008c-0.244,0.064-0.448,0.176-0.605,0.338
				c-0.537,0.535-0.537,1.406,0,1.938c0.229,0.23,0.542,0.374,0.869,0.403l0.027,0.161l0.529-0.208
				c1.234-0.486,2.535-0.73,3.861-0.73c2.793,0,5.414,1.083,7.4,3.075c2.943,2.939,3.854,7.353,2.324,11.242l-0.18,0.503
				l0.129,0.029c0.025,0.334,0.166,0.655,0.406,0.897c0.26,0.258,0.604,0.402,0.973,0.402c0.365,0,0.711-0.145,0.967-0.402
				c0.098-0.094,0.176-0.207,0.236-0.328l0.004-0.012c0.037-0.076,0.068-0.154,0.09-0.244l0.018-0.047
				c1.813-4.842,0.627-10.332-3.045-14C37.407,8.669,34.092,7.3,30.567,7.3z"/>
		</g>
		<g>
			<path fill="#A6A6A6" d="M30.547,14.581c-1.582,0-3.07,0.618-4.189,1.736c-0.535,0.536-0.535,1.407,0,1.942
				c0.516,0.515,1.419,0.52,1.937,0c1.205-1.205,3.281-1.227,4.525,0.019c0.602,0.604,0.934,1.403,0.934,2.256
				c0,0.849-0.332,1.647-0.934,2.251c-0.533,0.535-0.533,1.404,0,1.939c0.26,0.259,0.605,0.402,0.973,0.402s0.711-0.143,0.967-0.402
				c1.123-1.118,1.738-2.608,1.738-4.194c0-1.583-0.615-3.072-1.756-4.213C33.622,15.199,32.133,14.581,30.547,14.581z"/>
		</g>
	</g>
</g>
</svg>
