<?xml version="1.0" encoding="utf-8"?>
<!-- Generator: Adobe Illustrator 16.0.0, SVG Export Plug-In . SVG Version: 6.00 Build 0)  -->
<!DOCTYPE svg PUBLIC "-//W3C//DTD SVG 1.1//EN" "http://www.w3.org/Graphics/SVG/1.1/DTD/svg11.dtd">
<svg version="1.1" id="Слой_1" xmlns="http://www.w3.org/2000/svg" xmlns:xlink="http://www.w3.org/1999/xlink" x="0px" y="0px"
	 width="53.881px" height="48.445px" viewBox="0 0 53.881 48.445" enable-background="new 0 0 53.881 48.445" xml:space="preserve">
<g>
	<path fill="#BCBEBF" d="M38.895,1.825c-0.578-0.24-1.24,0.035-1.48,0.613c-0.238,0.579,0.037,1.242,0.615,1.479
		c8.252,3.407,13.584,11.377,13.584,20.305c0,12.108-9.85,21.958-21.957,21.958c-0.625,0-1.133,0.508-1.133,1.133
		c0,0.627,0.508,1.133,1.133,1.133c13.357,0,24.225-10.865,24.225-24.223C53.881,14.374,47.999,5.582,38.895,1.825L38.895,1.825z
		 M38.895,1.825"/>
	<path fill="#BCBEBF" d="M29.657,39.957c8.678,0,15.734-7.059,15.734-15.735c0-8.676-7.057-15.734-15.734-15.734
		c-0.625,0-1.133,0.508-1.133,1.134s0.508,1.133,1.133,1.133c7.428,0,13.469,6.042,13.469,13.468
		c0,7.426-6.041,13.469-13.469,13.469c-0.625,0-1.133,0.506-1.133,1.133C28.524,39.449,29.032,39.957,29.657,39.957L29.657,39.957z
		 M29.657,39.957"/>
	<path fill="#BCBEBF" d="M33.346,28.184c-0.457,0.428-0.484,1.145-0.057,1.604c0.223,0.24,0.525,0.359,0.83,0.359
		c0.275,0,0.553-0.1,0.771-0.303c1.555-1.449,2.447-3.498,2.447-5.622c0-4.234-3.445-7.68-7.682-7.68
		c-0.625,0-1.133,0.508-1.133,1.134s0.508,1.133,1.133,1.133c2.986,0,5.414,2.429,5.414,5.413
		C35.071,25.74,34.458,27.148,33.346,28.184L33.346,28.184z M33.346,28.184"/>
	<path fill="#BCBEBF" d="M24.705,0.086c-0.424-0.176-0.912-0.079-1.236,0.244L11.492,12.289H1.133C0.508,12.289,0,12.796,0,13.422
		v21.601c0,0.625,0.508,1.133,1.133,1.133h10.828c0.627,0,1.135-0.508,1.135-1.133c0-0.627-0.508-1.133-1.135-1.133H2.268V14.556
		h9.693c0.301,0,0.59-0.119,0.801-0.331L23.137,3.867V44.58l-5.596-5.588c-0.443-0.441-1.16-0.441-1.604,0.002
		c-0.441,0.441-0.441,1.16,0.002,1.602l7.529,7.52c0.217,0.215,0.508,0.33,0.803,0.33c0.145,0,0.293-0.029,0.434-0.086
		c0.422-0.176,0.699-0.588,0.699-1.047V1.133C25.404,0.674,25.127,0.261,24.705,0.086L24.705,0.086z M24.705,0.086"/>
</g>
</svg>
