<?xml version="1.0" encoding="utf-8"?>
<!-- Generator: Adobe Illustrator 16.0.0, SVG Export Plug-In . SVG Version: 6.00 Build 0)  -->
<!DOCTYPE svg PUBLIC "-//W3C//DTD SVG 1.1//EN" "http://www.w3.org/Graphics/SVG/1.1/DTD/svg11.dtd">
<svg version="1.1" id="Слой_1" xmlns="http://www.w3.org/2000/svg" xmlns:xlink="http://www.w3.org/1999/xlink" x="0px" y="0px"
	 width="94px" height="79px" viewBox="0 0 94 79" enable-background="new 0 0 94 79" xml:space="preserve">
<path fill-rule="evenodd" clip-rule="evenodd" fill="#D8D9D9" d="M83.929,64.188l-10.743-7.898l-0.017,0.023
	c-0.28-0.207-0.612-0.355-0.99-0.355H21.821c-0.377,0-0.71,0.148-0.99,0.355l-0.017-0.023l-10.743,7.898V39.5H6.714v36.207
	c0,1.818,1.504,3.293,3.357,3.293h73.857c1.853,0,3.356-1.475,3.356-3.293V39.5h-3.356V64.188z M83.929,75.707H10.071v-7.406
	l12.311-9.051h49.236l12.311,9.051V75.707z M93.383,23.439l0.015-0.016L73.857,7.457V1.645c0-0.906-0.75-1.645-1.679-1.645H21.821
	c-0.928,0-1.678,0.738-1.678,1.645v5.813L0.603,23.424l0.015,0.016C0.249,23.742,0,24.178,0,24.688v6.582
	c0,0.91,0.75,1.646,1.679,1.646h5.036c1.679,0,3.357,3.291,6.714,3.291c3.357,0,5.036-3.291,6.714-3.291H23.5
	c1.679,0,3.357,3.291,6.714,3.291c3.357,0,5.036-3.291,6.714-3.291h3.357c1.679,0,3.357,3.291,6.714,3.291
	c3.357,0,5.035-3.291,6.715-3.291h3.356c1.679,0,3.357,3.291,6.714,3.291c3.357,0,5.036-3.291,6.715-3.291h3.357
	c1.678,0,3.357,3.291,6.714,3.291c3.357,0,5.036-3.291,6.714-3.291h5.036C93.25,32.916,94,32.18,94,31.27v-6.582
	C94,24.178,93.752,23.742,93.383,23.439z M23.5,3.291h47v3.291h-47V3.291z M22.429,9.875H71.57l16.115,13.166H6.315L22.429,9.875z
	 M90.643,29.625h-3.357c-3.356,0-3.356,3.291-6.714,3.291c-3.356,0-3.356-3.291-6.714-3.291H70.5c-3.357,0-3.357,3.291-6.715,3.291
	c-3.356,0-3.356-3.291-6.714-3.291h-3.356c-3.357,0-3.357,3.291-6.715,3.291c-3.357,0-3.357-3.291-6.714-3.291h-3.357
	c-3.357,0-3.357,3.291-6.714,3.291c-3.357,0-3.357-3.291-6.714-3.291h-3.357c-3.357,0-3.357,3.291-6.714,3.291
	c-3.357,0-3.357-3.291-6.714-3.291H3.357v-3.293h87.286V29.625z"/>
</svg>
